{
  "profiles": {
    "ScoreMSG": {
      "commandName": "Project",
      "commandLineArgs": "\"c:\\temp\\Emails\" \"C:\\Users\\terrence.blair\\Tetra Tech, Inc\\Nicewaner, Cheryl1 - FIT TRIAGE EMAILS\\Keywords\" \"terrence.blair@gmail.com\""
    }
  }
}